<?xml version="1.0" encoding="utf-8"?>
<!-- Generator: Adobe Illustrator 19.1.0, SVG Export Plug-In . SVG Version: 6.00 Build 0)  -->
<svg version="1.1" id="Layer_1" xmlns="http://www.w3.org/2000/svg" xmlns:xlink="http://www.w3.org/1999/xlink" x="0px" y="0px"
	 viewBox="265 -257 1490 1075" style="enable-background:new 265 -257 1490 1075;" xml:space="preserve">
<!--<style type="text/css">
	.st0{fill:#F39200;}
	.st1{fill:#FFFFFF;stroke:#000000;stroke-width:2.8084;stroke-miterlimit:10;}
	.st2{fill:#FFFFFF;stroke:#000000;stroke-width:2.8084;stroke-linecap:round;stroke-linejoin:round;stroke-miterlimit:10;}
	.st3{fill:#F39200;stroke:#000000;stroke-width:2.8084;stroke-miterlimit:10;}
	.st4{fill:none;stroke:#000000;stroke-width:2.8084;stroke-linecap:round;stroke-linejoin:round;stroke-miterlimit:10;}
	.st5{fill:#F39200;stroke:#000000;stroke-width:2.8084;stroke-linecap:square;stroke-miterlimit:10;}
	.st6{fill:#D17E1C;}
	.st7{fill:none;stroke:#000000;stroke-width:2.6244;stroke-linecap:round;stroke-linejoin:round;stroke-miterlimit:10;}
	.st8{fill:#108D35;}
	.st9{fill:#FFFFFF;}
	.st10{fill:#F89200;}
	.st11{fill:none;stroke:#FFFFFF;stroke-width:1.42;stroke-linecap:round;stroke-linejoin:round;stroke-dasharray:0.14,2.83;}
	.st12{fill:none;stroke:#FFFFFF;stroke-width:1.42;stroke-linecap:round;stroke-linejoin:round;stroke-dasharray:0.16,3.1;}
	.st13{fill:none;}
	.st14{fill:#513418;stroke:#000000;stroke-width:3.1319;stroke-linecap:round;stroke-linejoin:round;stroke-miterlimit:10;}
	.st15{fill:#5E3F1C;stroke:#000000;stroke-width:3.1319;stroke-linecap:round;stroke-linejoin:round;stroke-miterlimit:10;}
	.st16{fill:#06591C;}
	.st17{fill:#936528;stroke:#000000;stroke-width:3.1319;stroke-linecap:round;stroke-linejoin:round;stroke-miterlimit:10;}
	.st18{fill:#845925;stroke:#000000;stroke-width:3.1319;stroke-linecap:round;stroke-linejoin:round;stroke-miterlimit:10;}
</style>-->
<g>
	<g>
		<path class="st0" d="M1060.2,455c-13.3,0-27.8-0.2-44.2-0.7c-10.5-0.3-19.5-1.2-27.5-2.8c-41-8.1-47.5-19.4-61.8-44.2
			c-2.5-4.3-5.2-9.1-8.4-14.3c-6-9.8-12.8-18.5-20.7-26.4c-24.2-24.2-40.7-53.1-56.6-81c-13.2-23.1-25.6-44.9-40.9-60.9
			c-0.6-0.6-1.2-1.3-1.9-2.1c-19-23-49.3-105.4-62.2-140.6c-1.9-5-3.4-9.2-4.5-12l-3.4-9l5.8,7.7c5.5,7.3,22.7,8.6,35.3,9.5
			c2.3,0.2,4.4,0.3,6.3,0.5c1,0.1,1.9,0.1,2.9,0.1c3.7,0,7.3-0.7,10.8-2c19.6-7.6,34.7-22.6,50.7-38.4c6.3-6.2,12.7-12.6,19.5-18.6
			c5.5-4.9,9-10.8,9.9-17c2.4-15.8,0.4-46.4-3.6-55.5l2.5-1.3c1.9,3.2,19.3,31.9,35.5,42.7c0.7,0.5,1.5,1,2.2,1.5
			c6.9,4.6,14,9.3,23.9,11.6c26.8,6.2,41.5,28.3,57.8,56.5c1,1.7,2,3.4,3,5.1c4.4,7.7,11.2,11.2,21.3,11.2c5.3,0,11.5-0.9,20.1-3.1
			c3.7-0.9,7.4-1.9,11.4-3c2.2-0.6,4.4-1.2,6.7-1.8c5.5-1.5,11.9-3.1,18.3-4.1c3.2-0.5,6-0.9,8.7-1c6.8-0.5,13.6-0.7,20.1-0.7
			c17.8,0,34.8,1.7,50.4,5c21.3,4.5,40.9,12.2,58.1,22.9c17.8,11,33.5,25.4,46.8,42.9c12.9,17,23.8,37.1,32.2,59.9
			c8.4,22.6,14.6,48.1,18.5,75.9c2.3,16.4,3.8,33.2,4.5,51.5c0.6,13.9-3.9,56.3-31.1,85.3c-36.9,39.4-64.6,42.7-96.8,46.5l-1,0.1
			c-15.7,1.8-30.6,2.1-46.3,2.4c-9,0.2-18.3,0.3-28.2,0.8c-11.3,0.5-23,0.8-36,0.9C1065.7,455,1063,455,1060.2,455z"/>
		<path d="M867-53.2c4.5,7.6,20.8,33.1,36,43.1c7.4,4.9,15.3,10.7,26.6,13.3c27.1,6.3,41.5,29.2,56.9,55.8c1,1.7,2,3.4,3,5.1
			c5.1,8.9,13,11.9,22.5,11.9c6.2,0,13.2-1.3,20.5-3.1c5.8-1.4,11.9-3.2,18.1-4.8c6-1.6,12.1-3.1,18.2-4.1c2.9-0.5,5.8-0.8,8.6-1
			c6.9-0.5,13.5-0.7,20-0.7c18.3,0,34.9,1.8,50.1,5c22.2,4.7,41.3,12.5,57.7,22.7c18.7,11.6,34,26.2,46.5,42.5
			c13.9,18.2,24.3,38.6,32,59.5c9.5,25.5,15.1,51.7,18.4,75.6c2.7,19.2,3.9,36.8,4.5,51.3c0.4,10.5-2.4,54-30.7,84.3
			c-36.9,39.5-65.1,42.4-96.9,46.1c-24.5,2.9-46.9,1.9-74.5,3.2c-11.8,0.5-23.8,0.8-35.9,0.9c-2.7,0-5.5,0-8.2,0
			c-14.6,0-29.4-0.3-44.2-0.7c-10.5-0.3-19.5-1.2-27.3-2.7c-47.5-9.3-47.7-22.6-69.3-57.9c-5.3-8.7-12-17.7-20.9-26.7
			C854.2,321.3,834.7,259,801,223.8c-0.6-0.6-1.2-1.3-1.8-2c-21.6-26.1-57.7-129.1-66.4-152.2c6.9,9.1,29.5,9.4,42.6,10.6
			c1,0.1,2,0.1,3,0.1c3.9,0,7.7-0.7,11.3-2.1c27.8-10.7,46.7-36.2,70.6-57.3c5.3-4.7,9.3-10.8,10.3-17.8
			C873.2-13,871.2-43.8,867-53.2 M869.4-54.6l-5,2.6c3.9,8.9,5.9,39.1,3.5,54.7c-0.9,5.9-4.2,11.5-9.4,16.1
			c-6.8,6-13.3,12.5-19.6,18.7c-15.8,15.8-30.8,30.6-50.2,38.1c-3.3,1.3-6.8,1.9-10.3,1.9c-0.9,0-1.8,0-2.8-0.1
			c-2-0.2-4.1-0.4-6.4-0.5c-12.3-1-29.1-2.2-34.3-9l-11.7-15.3l6.8,18c1.1,2.9,2.6,6.9,4.4,12c12.9,35.2,43.2,117.8,62.4,141
			c0.7,0.8,1.3,1.6,2,2.2c15.2,15.9,27.6,37.6,40.7,60.6c16,28,32.6,57.1,56.9,81.3c7.9,7.9,14.6,16.4,20.5,26.2
			c3.2,5.2,6,10,8.4,14.3c14.5,25.2,21.1,36.7,62.7,44.9c8.1,1.6,17.2,2.5,27.7,2.8c16.5,0.5,31,0.7,44.3,0.7c2.7,0,5.5,0,8.2,0
			c12.9-0.1,24.7-0.4,36-0.9c9.9-0.5,19.2-0.6,28.2-0.8c15.8-0.3,30.7-0.5,46.5-2.4l1-0.1c15.9-1.9,30.9-3.6,46.7-9.9
			c17.7-7.1,33.9-18.8,50.9-37c12.4-13.3,21.5-30.4,26.8-50.8c4.2-15.9,4.9-29.8,4.7-35.5c-0.7-18.3-2.2-35.2-4.5-51.6
			c-3.9-27.9-10.2-53.5-18.6-76.2c-8.5-22.9-19.4-43.2-32.4-60.3c-13.4-17.6-29.3-32.1-47.2-43.2c-17.4-10.8-37.1-18.5-58.6-23.1
			c-15.7-3.4-32.8-5-50.7-5c-6.5,0-13.3,0.2-20.2,0.7c-2.8,0.2-5.7,0.5-8.9,1c-6.5,1-12.9,2.7-18.4,4.1c-2.3,0.6-4.5,1.2-6.7,1.8
			c-3.9,1.1-7.6,2.1-11.3,3c-8.5,2.1-14.6,3-19.8,3c-9.5,0-15.9-3.3-20-10.5c-1-1.7-2-3.4-3-5.1c-7.7-13.3-15.3-26-24.4-36
			c-10.2-11.2-21.4-18.1-34.3-21.1c-9.7-2.2-16.7-6.9-23.5-11.4c-0.8-0.5-1.5-1-2.2-1.5C888.6-23,871.3-51.4,869.4-54.6L869.4-54.6z
			"/>
	</g>
	<path class="st1" d="M810.1,156.7c0,0,28.7-9.9,37.7-18.6c5.6-5.5-15.1-25.4-28.5-19.8c-10.4,4.3-24.7,35.4-23.8,40.6
		C795.8,161.7,810.1,156.7,810.1,156.7z"/>
	<g>
		<path class="st0" d="M824.5,149.2c-5.9,0-10-3.1-12.9-9.9c-3.4-8,2.9-18.2,5.2-19.3c1.6-0.7,3.4-1.1,5.3-1.1
			c5.7,0,11.9,3.4,12.2,10.9c0,0.8,0.1,1.6,0.1,2.4c0.4,7.4,0.8,15.1-5.7,16.5C827.2,149.1,825.8,149.2,824.5,149.2z"/>
		<path d="M822.1,120.4c5,0,10.5,2.9,10.8,9.6c0.3,7.8,1.4,16.2-4.5,17.4c-1.4,0.3-2.7,0.5-3.9,0.5c-5.6,0-9.1-3.1-11.6-9.1
			c-3-7.2,2.9-16.7,4.5-17.4C818.7,120.7,820.4,120.4,822.1,120.4 M822.1,117.6L822.1,117.6c-2.1,0-4.2,0.4-5.9,1.2
			c-3,1.4-9.5,12.6-5.9,21.1c3.1,7.3,7.7,10.8,14.2,10.8c1.4,0,2.9-0.2,4.5-0.5c7.7-1.6,7.2-10.7,6.8-17.9c0-0.8-0.1-1.6-0.1-2.4
			C835.3,121.4,828.4,117.6,822.1,117.6L822.1,117.6z"/>
	</g>
	<path d="M825.3,133.6c-0.4,7.4,4.6,11.6,1.8,12.9c-0.7,0.3-2-2.8-3.3-12c-0.9-6.3-3.6-12.9-2.9-13.1
		C821.7,121.3,825.8,125.5,825.3,133.6z"/>
	<path class="st1" d="M927,44.8c0,0-15.4,35.2-29.2,46.6c-7.8,6.4-25.3-23.8-16.8-40.1c9-17.3,49.4-28.3,50.5-21.6
		C931.9,32,927,44.8,927,44.8z"/>
	<g>
		<path class="st0" d="M901.8,73.9c-4.8,0-8.7-2.5-10.9-7.2c-3.7-7.8-4.8-19.1,0.5-24.5c1.4-1.5,3.3-2.2,5.5-2.2
			c5.3,0,11,4.4,13.2,8.6c4.4,8,4.9,19.5,1,22.2C908.4,72.8,905,73.9,901.8,73.9L901.8,73.9z"/>
		<path d="M896.9,41.5c4.5,0,9.8,3.8,12,7.8c4.2,7.7,4.5,18.2,1.4,20.4c-2.4,1.7-5.5,2.8-8.5,2.8c-3.8,0-7.5-1.7-9.7-6.4
			c-3.8-8-4.4-18.2,0.3-22.9C893.7,42,895.3,41.5,896.9,41.5 M896.9,38.6c-2.5,0-4.8,0.9-6.5,2.6c-5.9,5.9-4.8,17.6-0.8,26
			c2.5,5.1,6.8,8,12.2,8c3.5,0,7.2-1.2,10.1-3.3c5-3.5,3.8-16-0.6-24C908.9,43.4,902.8,38.6,896.9,38.6L896.9,38.6z"/>
	</g>
	<path d="M900.1,57.5c3.3,7.9,6.5,12.3,9.3,12c0.7-0.1-3.9-5.6-7.2-13.5c-2.1-5.1-8.4-13.1-9.3-12C892.4,44.5,896.8,49.6,900.1,57.5
		z"/>
	<path class="st2" d="M884.5,131.1c0,0-14.2,9.3-9.7,12.6c2.9,2.2,10.3-9.6,10.3-9.6s1.9,9.6,7.5,10.1c8.5,0.8,7.5-7.9-1.2-10.5
		c-1.1-0.3-3.6-1.4-3.6-1.4s12.4-7.9,10.7-10C894.5,117.5,884.5,131.1,884.5,131.1z"/>
	<path class="st3" d="M866.4-54.4c0.2,0.4,0.4,0.8,0.6,1.2C865.7-55.4,865.4-56.1,866.4-54.4z"/>
	<path class="st4" d="M919.7,92.6c0,0,53.8-91.4,83.1-116.4"/>
	<path class="st4" d="M949,88.7c21.1-41,79.8-92,79.8-92"/>
	<path class="st4" d="M936.4,107.3c25.5-18.8,74.3-18.8,74.3-18.8"/>
	<path class="st4" d="M831,170.5c0,0-86.3,23.9-117,61.6"/>
	<path class="st4" d="M830.1,180.7c0,0-85,41.6-81.8,90.4"/>
	<path class="st4" d="M844.7,181c0,0-25,22.4-36.9,49.7"/>
	<path class="st5" d="M1067,370.7c-33.2,21.5-182.9-40.6-211.1,31.3c-21.5,54.7,114.2,49,146,50.9"/>
	<path class="st3" d="M866.4-54.4c0.2,0.4,0.4,0.8,0.6,1.2C865.7-55.4,865.4-56.1,866.4-54.4z"/>
	<path class="st6" d="M949.5,358.3c0,0,0,0-0.1,0C949.4,358.3,949.5,358.3,949.5,358.3z"/>
	<g>
		<path class="st6" d="M1147.3,67.4c-10.5,24-6.8,13.6-26.1,55.4c-28.1,60.9-68.3,50.5-87.1,15c-18.7-35.6,34.4-73.7,34.4-73.7
			c2.9-0.5,5.8-0.8,8.6-1C1103.5,61.4,1126.7,63,1147.3,67.4z"/>
		<path class="st6" d="M1251.5,132.7c-25.9,39.7-71.9,98.6-104.9,113.7c-46.8,21.5-44.9-19.7-31.8-46.8
			c12.7-26.3,65.7-83.6,90.3-109.5C1223.7,101.7,1239,116.3,1251.5,132.7z"/>
		<path class="st6" d="M1302,267.8c1.4-1.7-32.8,37.6-65.6,41.4c-32.8,3.7-44.9-11.2-47.7-46.8c-2.2-27.9,58.4-52.9,94.9-70.1
			C1293,217.7,1298.6,243.9,1302,267.8z"/>
		<path class="st6" d="M1125.4,451.3c-12.6,1-37.8,2-54.7,2c-5.2-11.3-14.1-26.6,0.3-44.8c7.4-9.3,18.1-6.3,25.7-2.1
			c5.6,3.1,10.1,7.8,12.9,13.5L1125.4,451.3z"/>
	</g>
	<path class="st6" d="M1005,452.3c-13.7-2-28.5-0.9-41-2c-7.5-0.6-9.8,0-16.6-1c-0.9-19.2,21.6-50.9,45-45.9
		C1005.9,406.3,1005,433.7,1005,452.3z"/>
	<path class="st7" d="M914.3,139.9c0,0-0.8,20.4-18,18.9c-12.2-1,2.2,10.9,2.2,10.9"/>
</g>
<g>
	<g>
		<path class="st8" d="M754.9-140.8c-11.3,0-20.4-9.2-20.4-20.4v-66.1c0-11.3,9.2-20.4,20.4-20.4h66.1c11.3,0,20.4,9.2,20.4,20.4
			v66.1c0,11.3-9.2,20.4-20.4,20.4H754.9z"/>
		<path class="st9" d="M821-245.3c9.9,0,17.9,8,17.9,17.9v66.1c0,9.9-8,17.9-17.9,17.9h-66.1c-9.9,0-17.9-8-17.9-17.9v-66.1
			c0-9.9,8-17.9,17.9-17.9H821 M821-250.3h-66.1c-12.6,0-22.9,10.3-22.9,22.9v66.1c0,12.6,10.3,22.9,22.9,22.9h66.1
			c12.6,0,22.9-10.3,22.9-22.9v-66.1C844-240,833.7-250.3,821-250.3L821-250.3z"/>
	</g>
	<polygon class="st10" points="767.7,-160.1 803.5,-165.5 815,-158.1 779.2,-152.7 	"/>
	<line class="st11" x1="738.4" y1="-155.7" x2="838.8" y2="-170.8"/>
	<line class="st11" x1="744" y1="-147.4" x2="839" y2="-161.8"/>
	<line class="st11" x1="776.7" y1="-143.8" x2="836.7" y2="-152.8"/>
	<polyline class="st12" points="831.9,-147.3 792.1,-172.8 756.1,-167.5 793.6,-143.6 	"/>
	<path class="st13" d="M776.6-224.6c-2.2-2-5.1-3.1-8.1-3.1h-11.4v22.3h11.3c3,0,6-1.1,8.2-3.3c2.2-2.1,3.5-5,3.4-8.1
		C780-219.8,778.8-222.6,776.6-224.6z"/>
	<path class="st9" d="M768.5-237.3h-16.1c-3.3,0-4.5,2.6-4.5,4.8v26.9H737v9.9h10.9v20.8c0,2.5,2,2.9,4.6,2.9c2.6,0,4.6-0.8,4.6-2.9
		v-20.8h11.5c5.5,0,10.6-2.2,14.6-6.2c3.9-3.9,6.1-9.3,6.1-14.8C789.2-228.1,779.9-237.3,768.5-237.3z M776.6-208.7
		c-2.2,2.1-5.1,3.3-8.2,3.3h-11.3v-22.3h11.4c3,0,5.9,1.1,8.1,3.1c2.2,2,3.5,4.8,3.4,7.8C780-213.7,778.8-210.8,776.6-208.7z"/>
	<path class="st9" d="M811.8-225.1h-16.1c-3.3,0-4.5,2.6-4.5,4.8v26.9H737v9.9h54.2v20.8c0,2.5,2,2.9,4.6,2.9c2.6,0,4.6-0.8,4.6-2.9
		v-20.8h11.5c5.5,0,10.7-2.2,14.6-6.2c3.9-3.9,6.1-9.3,6.1-14.8C832.6-215.9,823.3-225.1,811.8-225.1z M819.9-196.5
		c-2.2,2.1-5.1,3.3-8.2,3.3h-11.3v-22.3h11.4c3,0,5.9,1.1,8.1,3.1c2.2,2,3.5,4.8,3.4,7.8C823.4-201.6,822.1-198.6,819.9-196.5z"/>
</g>
<g>
	<path class="st9" d="M872.1-194.8c0.9,0.7,1.7,1.2,2.6,1.4c0.9,0.2,1.7,0.4,2.5,0.4c0.8,0,1.5-0.1,2.2-0.4c0.7-0.3,1.3-0.7,1.9-1.2
		s1-1.2,1.3-1.9c0.3-0.7,0.5-1.5,0.5-2.3c0-1.2-0.2-2.2-0.7-3.2s-1-1.7-1.8-2.3c-0.7-0.6-1.6-1-2.5-1.4c-1-0.3-1.9-0.4-2.9-0.4H868
		v36.1h-8.6V-213h15.3c2.8,0,5.2,0.4,7.4,1.2s3.9,1.8,5.4,3.1s2.5,2.8,3.3,4.4c0.7,1.7,1.1,3.4,1.1,5.2c0,2.1-0.4,4-1.3,5.6
		c-0.8,1.6-1.9,2.9-3.3,4c-1.4,1.1-2.9,1.9-4.7,2.4c-1.8,0.5-3.6,0.8-5.4,0.8c-0.8,0-1.5,0-2.2-0.1s-1.3-0.2-1.9-0.4
		c-0.6-0.2-1.3-0.4-1.9-0.8c-0.7-0.3-1.4-0.7-2.2-1.3L872.1-194.8z"/>
	<path class="st9" d="M920.7-170c-0.4-2.1-0.9-4.2-1.4-6.3c-0.5-2.1-1.1-4.2-1.8-6.1h-16.4c-0.6,1.9-1.3,3.9-1.8,5.9
		s-1.1,4.2-1.5,6.5h-8.7c0.8-3.9,1.8-7.7,2.8-11.3c1-3.6,2.2-7.1,3.5-10.5c1.3-3.5,2.7-6.9,4.3-10.4c1.6-3.5,3.3-7,5.2-10.8h8.6
		c1.9,3.7,3.7,7.2,5.3,10.7c1.6,3.5,3.1,6.9,4.4,10.4s2.5,7,3.6,10.6s1.9,7.4,2.7,11.3C929.5-170,920.7-170,920.7-170z M915.5-188.8
		c-0.5-1.4-1-2.7-1.5-4s-1-2.4-1.4-3.6c-0.5-1.2-1-2.4-1.5-3.5c-0.5-1.2-1.1-2.4-1.8-3.7c-1.3,2.5-2.4,5-3.3,7.5s-1.9,4.9-2.8,7.4
		L915.5-188.8L915.5-188.8z"/>
	<path class="st9" d="M933.8-213h8.6v28c1.4-2.3,2.8-4.6,4.3-6.9c1.5-2.4,3-4.7,4.5-7.1c1.5-2.4,3-4.8,4.4-7.1
		c1.5-2.4,2.9-4.6,4.3-6.9h8.6v42.9h-8.6v-28.1c-3,4.7-6,9.4-8.9,14.1c-3,4.7-6,9.4-8.9,14h-8.3L933.8-213L933.8-213z M954.8-222.4
		h6c-0.1,1.4-0.5,2.7-1,3.8s-1.3,2.2-2.1,3c-0.9,0.8-1.9,1.5-3,2c-1.1,0.5-2.4,0.7-3.7,0.7s-2.5-0.2-3.7-0.7c-1.2-0.5-2.2-1.1-3.1-2
		s-1.6-1.9-2.2-3s-0.9-2.4-1-3.8h6c0,0.6,0.2,1.2,0.4,1.7c0.2,0.5,0.5,0.9,0.9,1.2s0.8,0.6,1.3,0.8c0.5,0.2,0.9,0.3,1.4,0.3
		s0.9-0.1,1.3-0.3c0.4-0.2,0.8-0.4,1.2-0.8c0.3-0.3,0.6-0.7,0.9-1.2C954.6-221.3,954.8-221.8,954.8-222.4z"/>
	<path class="st9" d="M975-191c0-3.2,0.5-6.2,1.4-9s2.3-5.2,4.1-7.2s4-3.6,6.6-4.8c2.6-1.2,5.5-1.7,8.8-1.7c3.1,0,5.9,0.5,8.5,1.6
		c2.6,1.1,4.8,2.6,6.6,4.5c1.8,2,3.2,4.3,4.2,7s1.5,5.8,1.5,9.1s-0.5,6.4-1.6,9.1c-1,2.7-2.5,5-4.3,7c-1.9,1.9-4,3.4-6.6,4.5
		s-5.3,1.6-8.3,1.6c-3,0-5.8-0.5-8.3-1.6c-2.5-1-4.7-2.5-6.6-4.4c-1.9-1.9-3.3-4.2-4.3-6.8C975.5-184.8,975-187.7,975-191z
		 M983.8-190.9c0,2.4,0.3,4.5,0.9,6.3c0.6,1.8,1.5,3.4,2.5,4.6c1.1,1.3,2.4,2.2,3.8,2.9c1.5,0.7,3,1,4.7,1c1.8,0,3.4-0.3,4.9-1
		c1.5-0.7,2.8-1.6,3.8-2.9c1.1-1.3,1.9-2.9,2.5-4.8s0.9-4.1,0.9-6.6c0-2.5-0.3-4.7-0.9-6.6c-0.6-1.9-1.5-3.5-2.5-4.8s-2.3-2.3-3.8-3
		c-1.5-0.7-3-1-4.8-1c-1.7,0-3.3,0.3-4.8,1c-1.5,0.7-2.8,1.7-3.8,3c-1.1,1.3-1.9,3-2.5,5C984.1-195.9,983.8-193.6,983.8-190.9z"/>
	<path class="st9" d="M1023.1-170v-43h8.6v17.2h17.5V-213h8.6v42.9h-8.6v-18.9h-17.5v18.9C1031.7-170,1023.1-170,1023.1-170z"/>
	<path class="st9" d="M1078.8-194.8c0.9,0.7,1.7,1.2,2.6,1.4c0.9,0.2,1.7,0.4,2.5,0.4c0.8,0,1.5-0.1,2.2-0.4
		c0.7-0.3,1.4-0.7,1.9-1.2s1-1.2,1.3-1.9c0.3-0.7,0.5-1.5,0.5-2.3c0-1.2-0.2-2.2-0.7-3.2c-0.4-0.9-1-1.7-1.8-2.3
		c-0.7-0.6-1.6-1-2.5-1.4c-0.9-0.3-1.9-0.4-2.9-0.4h-7.2v36.1h-8.6V-213h15.4c2.8,0,5.2,0.4,7.4,1.2c2.1,0.8,3.9,1.8,5.4,3.1
		c1.4,1.3,2.5,2.8,3.3,4.4c0.7,1.7,1.1,3.4,1.1,5.2c0,2.1-0.4,4-1.3,5.6c-0.8,1.6-1.9,2.9-3.3,4c-1.4,1.1-2.9,1.9-4.7,2.4
		c-1.8,0.5-3.6,0.8-5.4,0.8c-0.8,0-1.5,0-2.2-0.1s-1.3-0.2-1.9-0.4c-0.6-0.2-1.3-0.4-1.9-0.8c-0.7-0.3-1.4-0.7-2.2-1.3L1078.8-194.8
		z"/>
	<path class="st9" d="M1128.2-188.6c-0.7,0.4-1.6,0.9-2.6,1.5c-1,0.6-2,1.3-3,2c-1,0.8-2.1,1.6-3.1,2.6s-1.9,2-2.7,3.1l-6.9,9.5
		h-9.8l8.9-12.6c0.4-0.5,0.7-1,1.2-1.5c0.4-0.5,0.8-1,1.3-1.4c0.5-0.5,0.9-0.9,1.4-1.3c0.5-0.4,0.9-0.8,1.3-1.1
		c-1.6-0.4-3-1-4.1-1.9c-1.2-0.8-2.1-1.7-2.9-2.7c-0.8-1-1.3-2.1-1.7-3.2c-0.4-1.1-0.6-2.3-0.6-3.3c0-2.2,0.5-4.2,1.4-5.9
		c0.9-1.7,2.1-3.2,3.7-4.4c1.5-1.2,3.3-2.1,5.4-2.7c2-0.6,4.2-0.9,6.5-0.9h15.9v42.9h-8.6v-36.1h-7.5c-1.2,0-2.2,0.2-3.2,0.6
		s-1.8,0.9-2.5,1.6s-1.3,1.4-1.6,2.3s-0.6,1.8-0.6,2.7c0,0.8,0.2,1.6,0.6,2.3c0.4,0.7,0.9,1.4,1.5,1.9c0.6,0.6,1.3,1,2,1.3
		s1.4,0.5,2.1,0.5c0.3,0,0.8,0,1.2-0.1s0.9-0.2,1.4-0.3c0.5-0.1,0.9-0.3,1.4-0.5c0.4-0.2,0.8-0.5,1.2-0.9L1128.2-188.6z"/>
	<path class="st9" d="M1153.6-213h24.2v36.1h5.4v13.3h-8.2v-6.5h-24.2v6.5h-8.3v-13.3h4.1c0.8-1.2,1.7-2.7,2.5-4.4
		c0.8-1.8,1.6-3.8,2.3-6.2c0.7-2.4,1.2-5.1,1.7-8.2c0.4-3.1,0.6-6.5,0.6-10.4L1153.6-213L1153.6-213z M1169.2-206.1h-7.2v1.1
		c0,2.4-0.2,4.9-0.4,7.5c-0.3,2.6-0.7,5.1-1.2,7.6c-0.5,2.5-1.2,4.9-1.9,7.1s-1.6,4.2-2.5,6h13.3V-206.1z"/>
	<path class="st9" d="M1186.4-191c0-3.2,0.5-6.2,1.4-9s2.3-5.2,4.1-7.2s4-3.6,6.6-4.8c2.6-1.2,5.5-1.7,8.8-1.7
		c3.1,0,5.9,0.5,8.5,1.6c2.6,1.1,4.8,2.6,6.6,4.5c1.8,2,3.2,4.3,4.2,7s1.5,5.8,1.5,9.1s-0.5,6.4-1.6,9.1c-1,2.7-2.5,5-4.3,7
		c-1.9,1.9-4,3.4-6.6,4.5s-5.3,1.6-8.3,1.6c-3,0-5.8-0.5-8.3-1.6c-2.5-1-4.7-2.5-6.6-4.4c-1.8-1.9-3.3-4.2-4.3-6.8
		C1186.9-184.8,1186.4-187.7,1186.4-191z M1195.2-190.9c0,2.4,0.3,4.5,0.9,6.3c0.6,1.8,1.5,3.4,2.6,4.6c1.1,1.3,2.4,2.2,3.8,2.9
		c1.5,0.7,3,1,4.7,1c1.8,0,3.4-0.3,4.9-1c1.5-0.7,2.8-1.6,3.8-2.9c1.1-1.3,1.9-2.9,2.5-4.8s0.9-4.1,0.9-6.6c0-2.5-0.3-4.7-0.9-6.6
		c-0.6-1.9-1.4-3.5-2.5-4.8c-1.1-1.3-2.3-2.3-3.8-3c-1.5-0.7-3-1-4.8-1s-3.3,0.3-4.8,1c-1.5,0.7-2.8,1.7-3.8,3c-1.1,1.3-1.9,3-2.6,5
		C1195.5-195.9,1195.2-193.6,1195.2-190.9z"/>
	<path class="st9" d="M1234.5-170v-43h8.4c1.3,1.8,2.6,3.6,3.8,5.5c1.2,1.9,2.3,3.8,3.4,5.8c1.1,2,2,4,2.9,6.1s1.6,4.2,2.3,6.4h0.1
		c1.4-4.4,3.2-8.6,5.2-12.5s4.4-7.7,7.1-11.3h8.6v42.9h-8.6v-28.8c-1.7,3-3.2,6.2-4.6,9.6c-1.4,3.4-2.7,6.9-4.1,10.6h-7.4
		c-1.2-3.7-2.5-7.3-3.9-10.7s-2.9-6.6-4.7-9.6v28.9L1234.5-170L1234.5-170z"/>
</g>
<g>
	<rect x="959.2" y="240.3" class="st14" width="315.3" height="109"/>
	<polygon class="st15" points="959.2,240.3 851.9,299.3 851.9,408.3 959.2,331.1 	"/>
	<g>
		<circle class="st16" cx="1125.4" cy="332.3" r="48"/>
		<g>
			<path class="st9" d="M1108.2,308.1c8.6,0,13.3,6.3,13.3,13.9c0,9.7-6.6,15-13.8,15c-7.6,0-13.5-5.6-13.5-14.2
				C1094.3,314.9,1099.4,308.1,1108.2,308.1L1108.2,308.1z M1107.9,315c-2.9,0-4.1,3.3-4.1,7.6c0,4.5,1.4,7.5,4.3,7.5
				c2.6,0,4-2.6,4-7.5C1112,318.2,1111,315,1107.9,315L1107.9,315z M1108.8,356.5l26.6-48.3h6.6l-26.6,48.3H1108.8z M1143.3,327.5
				c8.6,0,13.3,6.3,13.3,13.9c0,9.7-6.6,15-13.8,15c-7.6,0-13.5-5.6-13.5-14.2C1129.4,334.3,1134.6,327.5,1143.3,327.5L1143.3,327.5
				z M1143.1,334.4c-3,0-4.1,3.3-4.1,7.6c0,4.5,1.4,7.5,4.3,7.5c2.6,0,4-2.6,4-7.5C1147.2,337.6,1146,334.4,1143.1,334.4
				L1143.1,334.4z"/>
		</g>
	</g>
	<rect x="851.9" y="299.3" class="st17" width="315.3" height="190.5"/>
	<polygon class="st18" points="1274.5,242.2 1167.2,299.3 1167.2,489.8 1274.5,430.7 	"/>
	<g>
		<circle class="st16" cx="1027.4" cy="291.3" r="48"/>
		<g>
			<path class="st9" d="M1010.2,267.1c8.6,0,13.3,6.3,13.3,13.9c0,9.7-6.6,15-13.8,15c-7.6,0-13.5-5.6-13.5-14.2
				C996.3,273.9,1001.4,267.1,1010.2,267.1L1010.2,267.1z M1009.9,274c-3,0-4.1,3.3-4.1,7.6c0,4.5,1.4,7.5,4.3,7.5
				c2.6,0,4-2.6,4-7.5C1014,277.2,1013,274,1009.9,274L1009.9,274z M1010.8,315.5l26.6-48.3h6.6l-26.6,48.3H1010.8z M1045.3,286.5
				c8.6,0,13.3,6.3,13.3,13.9c0,9.7-6.6,15-13.8,15c-7.6,0-13.5-5.6-13.5-14.2C1031.4,293.3,1036.6,286.5,1045.3,286.5L1045.3,286.5
				z M1045.1,293.4c-3,0-4.1,3.3-4.1,7.6c0,4.5,1.4,7.5,4.3,7.5c2.6,0,4-2.6,4-7.5C1049.2,296.6,1048,293.4,1045.1,293.4
				L1045.1,293.4z"/>
		</g>
	</g>
	<polygon class="st17" points="1166.2,298.3 1121.8,394.8 806.5,394.8 851.4,299.2 	"/>
	<polygon class="st18" points="1170.3,297.7 1229.5,381.5 1329,314.4 1274.5,240.3 	"/>
</g>
<g>
	<g>
		<circle class="st16" cx="1157.4" cy="230.3" r="48"/>
		<g>
			<path class="st9" d="M1140.2,206.1c8.6,0,13.3,6.3,13.3,13.9c0,9.7-6.6,15-13.8,15c-7.6,0-13.5-5.6-13.5-14.2
				C1126.3,212.9,1131.4,206.1,1140.2,206.1L1140.2,206.1z M1139.9,213c-2.9,0-4.1,3.3-4.1,7.6c0,4.5,1.4,7.5,4.3,7.5
				c2.6,0,4-2.6,4-7.5C1144,216.2,1143,213,1139.9,213L1139.9,213z M1140.8,254.5l26.6-48.3h6.6l-26.6,48.3H1140.8z M1175.3,225.5
				c8.6,0,13.3,6.3,13.3,13.9c0,9.7-6.6,15-13.8,15c-7.6,0-13.5-5.6-13.5-14.2C1161.4,232.3,1166.6,225.5,1175.3,225.5L1175.3,225.5
				z M1175.1,232.4c-3,0-4.1,3.3-4.1,7.6c0,4.5,1.4,7.5,4.3,7.5c2.6,0,4-2.6,4-7.5C1179.2,235.6,1178,232.4,1175.1,232.4
				L1175.1,232.4z"/>
		</g>
	</g>
	<g>
		<circle class="st16" cx="1021.9" cy="170.8" r="32.5"/>
		<g>
			<path class="st9" d="M1010.3,154.4c5.8,0,9,4.3,9,9.4c0,6.6-4.5,10.1-9.3,10.1c-5.2,0-9.1-3.8-9.1-9.6
				C1000.9,159,1004.3,154.4,1010.3,154.4L1010.3,154.4z M1010.1,159.1c-2,0-2.8,2.2-2.8,5.1c0,3,1,5.1,2.9,5.1
				c1.8,0,2.7-1.8,2.7-5.1C1012.8,161.3,1012.1,159.1,1010.1,159.1L1010.1,159.1z M1010.7,187.1l18-32.7h4.5l-18,32.7H1010.7z
				 M1034.1,167.5c5.8,0,9,4.2,9,9.4c0,6.6-4.5,10.1-9.3,10.1c-5.2,0-9.1-3.8-9.1-9.6C1024.7,172.1,1028.1,167.5,1034.1,167.5
				L1034.1,167.5z M1033.9,172.2c-2,0-2.8,2.2-2.8,5.1c0,3,0.9,5.1,2.9,5.1c1.8,0,2.7-1.8,2.7-5.1
				C1036.6,174.4,1035.9,172.2,1033.9,172.2L1033.9,172.2z"/>
		</g>
	</g>
	<g>
		<circle class="st16" cx="1089.2" cy="-1" r="26.8"/>
		<g>
			<path class="st9" d="M1079.6-14.4c4.8,0,7.4,3.5,7.4,7.8c0,5.4-3.7,8.4-7.7,8.4c-4.3,0-7.5-3.1-7.5-7.9
				C1071.8-10.6,1074.7-14.5,1079.6-14.4L1079.6-14.4L1079.6-14.4z M1079.4-10.6c-1.6,0-2.3,1.9-2.3,4.2c0,2.5,0.8,4.2,2.4,4.2
				c1.4,0,2.2-1.4,2.2-4.2C1081.7-8.8,1081.1-10.6,1079.4-10.6L1079.4-10.6z M1079.9,12.6l14.9-27h3.7l-14.8,27H1079.9z M1099.2-3.6
				c4.8,0,7.4,3.5,7.4,7.8c0,5.4-3.7,8.4-7.7,8.4c-4.3,0-7.5-3.1-7.5-7.9C1091.5,0.2,1094.3-3.6,1099.2-3.6L1099.2-3.6L1099.2-3.6z
				 M1099.1,0.3c-1.7,0-2.3,1.9-2.3,4.2c0,2.5,0.8,4.2,2.4,4.2c1.5,0,2.2-1.5,2.2-4.2C1101.4,2,1100.7,0.3,1099.1,0.3L1099.1,0.3z"
				/>
		</g>
	</g>
	<g>
		<circle class="st16" cx="919.2" cy="263" r="26.8"/>
		<g>
			<path class="st9" d="M909.6,249.5c4.8,0,7.4,3.5,7.4,7.8c0,5.4-3.7,8.4-7.7,8.4c-4.3,0-7.5-3.1-7.5-7.9
				C901.8,253.4,904.7,249.5,909.6,249.5L909.6,249.5z M909.4,253.4c-1.7,0-2.3,1.9-2.3,4.2c0,2.5,0.8,4.2,2.4,4.2
				c1.5,0,2.2-1.5,2.2-4.2C911.7,255.2,911.1,253.4,909.4,253.4L909.4,253.4z M909.9,276.6l14.9-27h3.7l-14.8,27H909.9z
				 M929.2,260.4c4.8,0,7.4,3.5,7.4,7.8c0,5.4-3.7,8.4-7.7,8.4c-4.3,0-7.5-3.1-7.5-7.9C921.5,264.2,924.3,260.4,929.2,260.4
				L929.2,260.4z M929.1,264.3c-1.7,0-2.3,1.8-2.3,4.2c0,2.5,0.8,4.2,2.4,4.2c1.5,0,2.2-1.5,2.2-4.2
				C931.4,266,930.7,264.3,929.1,264.3L929.1,264.3z"/>
		</g>
	</g>
</g>
<g>
	<path class="st9" d="M779.6,518.5v34.1H775v-14.2c-1.5,0.5-2.9,0.8-4.3,1s-3,0.3-4.9,0.3c-3.8,0-6.6-0.8-8.6-2.5s-2.9-4.3-2.9-8
		v-10.8h4.6v10.8c0,2.6,0.5,4.4,1.6,5.4s2.8,1.5,5.2,1.5c1.6,0,3.2-0.1,4.7-0.3s3-0.5,4.6-1v-16.3H779.6z"/>
	<path class="st9" d="M797.7,553.1c-3.5,0-6.3-1.2-8.4-3.5s-3.1-5.4-3.1-9.2v-1c0-3.6,1.1-6.6,3.2-9s4.7-3.6,7.6-3.6
		c3.4,0,6,1,7.8,3.1s2.6,4.8,2.6,8.3v2.9h-16.5l-0.1,0.1c0,2.4,0.7,4.4,1.9,6s2.9,2.3,5,2.3c1.6,0,2.9-0.2,4.1-0.7s2.2-1.1,3.1-1.8
		l1.8,3c-0.9,0.9-2.1,1.6-3.6,2.2S799.8,553.1,797.7,553.1z M797,530.4c-1.5,0-2.9,0.7-4,1.9c-1.1,1.3-1.8,2.9-2,4.9l0,0.1h11.7
		v-0.6c0-1.8-0.5-3.3-1.5-4.5C800.4,531,798.9,530.4,797,530.4z"/>
	<path class="st9" d="M827,546.5h0.1l8.3-19.3h5.8v25.4h-4.6V535l-0.1,0l-7.8,17.6h-3.2l-7.9-18l-0.1,0v18h-4.6v-25.4h6L827,546.5z"
		/>
	<path class="st9" d="M871.5,528.7c3.2,0,5.8,1.1,7.7,3.2s2.8,4.9,2.8,8.3v0.5c0,3.6-1,6.6-3,8.9s-4.8,3.5-8.3,3.5s-6.3-1.2-8.3-3.5
		c-2-2.3-3.1-5.3-3.1-8.9v-3.3c0-5,1.1-9,3.2-12c2.1-3,4.9-4.8,8.4-5.5c2-0.4,3.4-0.8,4.3-1.3s1.3-1.3,1.3-2.4h3.6l0,0.1
		c0,2.8-0.6,4.6-1.9,5.4s-3.5,1.5-6.4,2c-2.1,0.4-3.9,1.2-5.5,2.5s-2.4,3.2-2.8,5.6l0.1,0.1c0.9-1,2.1-1.8,3.5-2.4
		S869.9,528.7,871.5,528.7z M870.6,532.3c-2.2,0-3.9,0.7-5,2.2c-1.1,1.5-1.7,3.4-1.7,5.6v0.5c0,2.5,0.6,4.6,1.7,6.3
		c1.1,1.7,2.8,2.5,5,2.5c2.2,0,3.9-0.8,5-2.5c1.1-1.7,1.7-3.7,1.7-6.3v-0.5c0-2.2-0.6-4.1-1.7-5.6
		C874.5,533.1,872.8,532.3,870.6,532.3z"/>
	<path class="st9" d="M885.8,539.7c0-3.8,1-6.8,3-9.3s4.8-3.6,8.3-3.6c3.5,0,6.3,1.2,8.3,3.6s3.1,5.5,3.1,9.3v0.5c0,3.8-1,6.9-3,9.3
		s-4.8,3.6-8.3,3.6s-6.3-1.2-8.3-3.6s-3.1-5.5-3.1-9.3V539.7z M890.4,540.2c0,2.7,0.6,4.9,1.7,6.6s2.8,2.6,5.1,2.6
		c2.2,0,3.9-0.9,5-2.6s1.7-4,1.7-6.6v-0.5c0-2.7-0.6-4.9-1.7-6.6s-2.8-2.6-5.1-2.6c-2.2,0-3.9,0.9-5,2.6s-1.7,4-1.7,6.6V540.2z"/>
	<path class="st9" d="M934.3,527.2v25.4h-4.6v-21.7h-8.6v7.2c0,5-0.7,8.7-2,11c-1.3,2.3-3.6,3.5-6.8,3.5H911l0.1-3.9l1,0
		c1.6,0,2.8-0.8,3.4-2.4s1-4.3,1-8.2v-10.9H934.3z"/>
	<path class="st9" d="M945.2,536.9h6.3c3,0,5.3,0.7,7,2.2s2.5,3.3,2.5,5.6c0,2.3-0.8,4.2-2.5,5.7s-4,2.2-7,2.2h-10.9v-25.4h4.6
		V536.9z M945.2,540.5v8.4h6.3c1.7,0,2.9-0.4,3.7-1.2s1.2-1.8,1.2-3c0-1.1-0.4-2.2-1.2-3c-0.8-0.9-2-1.3-3.7-1.3H945.2z"/>
	<path class="st9" d="M971,527.2v21.7h8.9v-21.7h4.6v21.7h8.9v-21.7h4.6v25.4h-31.7v-25.4H971z"/>
	<path class="st9" d="M1015.5,553.1c-3.5,0-6.3-1.2-8.4-3.5s-3.1-5.4-3.1-9.2v-1c0-3.6,1.1-6.6,3.2-9s4.7-3.6,7.6-3.6
		c3.4,0,6,1,7.8,3.1s2.6,4.8,2.6,8.3v2.9h-16.5l-0.1,0.1c0,2.4,0.7,4.4,1.9,6s2.9,2.3,5,2.3c1.6,0,2.9-0.2,4.1-0.7s2.2-1.1,3.1-1.8
		l1.8,3c-0.9,0.9-2.1,1.6-3.6,2.2S1017.6,553.1,1015.5,553.1z M1014.8,530.4c-1.5,0-2.9,0.7-4,1.9c-1.1,1.3-1.8,2.9-2,4.9l0,0.1
		h11.7v-0.6c0-1.8-0.5-3.3-1.5-4.5C1018.1,531,1016.7,530.4,1014.8,530.4z"/>
	<path class="st9" d="M1062.8,552.6h-4.6v-21.7h-11.3v21.7h-4.6v-25.4h20.6V552.6z"/>
	<path class="st9" d="M1068.5,539.7c0-3.8,1-6.8,3-9.3s4.8-3.6,8.3-3.6c3.5,0,6.3,1.2,8.3,3.6s3.1,5.5,3.1,9.3v0.5
		c0,3.8-1,6.9-3,9.3s-4.8,3.6-8.3,3.6s-6.3-1.2-8.3-3.6s-3.1-5.5-3.1-9.3V539.7z M1073.1,540.2c0,2.7,0.6,4.9,1.7,6.6
		s2.8,2.6,5.1,2.6c2.2,0,3.9-0.9,5-2.6s1.7-4,1.7-6.6v-0.5c0-2.7-0.6-4.9-1.7-6.6s-2.8-2.6-5.1-2.6c-2.2,0-3.9,0.9-5,2.6
		s-1.7,4-1.7,6.6V540.2z"/>
	<path class="st9" d="M1104.7,541.8h-3v10.8h-4.6v-25.4h4.6v10.7h2.7l8.4-10.7h5.4l0.1,0.1l-9.9,12l10.7,13.1l-0.1,0.1h-5.7
		L1104.7,541.8z"/>
	<path class="st9" d="M1130.1,543.2l0.8,3.2h0.1l6.2-19.1h5.1l-10.7,29.3c-0.6,1.7-1.6,3.2-2.8,4.5s-2.8,1.9-4.8,1.9
		c-0.4,0-0.9,0-1.4-0.1s-1-0.2-1.3-0.2l0.5-3.6c-0.1,0,0.2,0,0.8,0s1.1,0.1,1.2,0.1c1,0,1.8-0.4,2.4-1.3s1.1-1.8,1.6-2.9l1.1-2.6
		l-9.4-24.8h5.2L1130.1,543.2z"/>
	<path class="st9" d="M1167,552.6h-4.6v-21.7h-11.3v21.7h-4.6v-25.4h20.6V552.6z"/>
	<path class="st9" d="M1172.6,539.7c0-3.8,1-6.8,3-9.3s4.8-3.6,8.3-3.6c3.5,0,6.3,1.2,8.3,3.6s3.1,5.5,3.1,9.3v0.5
		c0,3.8-1,6.9-3,9.3s-4.8,3.6-8.3,3.6s-6.3-1.2-8.3-3.6s-3.1-5.5-3.1-9.3V539.7z M1177.3,540.2c0,2.7,0.6,4.9,1.7,6.6
		s2.8,2.6,5.1,2.6c2.2,0,3.9-0.9,5-2.6s1.7-4,1.7-6.6v-0.5c0-2.7-0.6-4.9-1.7-6.6s-2.8-2.6-5.1-2.6c-2.2,0-3.9,0.9-5,2.6
		s-1.7,4-1.7,6.6V540.2z"/>
	<path class="st9" d="M1208.9,541.8h-3v10.8h-4.6v-25.4h4.6v10.7h2.7l8.4-10.7h5.4l0.1,0.1l-9.9,12l10.7,13.1l-0.1,0.1h-5.7
		L1208.9,541.8z"/>
	<path class="st9" d="M1246.1,543.2l0.8,3.2h0.1l6.2-19.1h5.1l-10.7,29.3c-0.6,1.7-1.6,3.2-2.8,4.5s-2.8,1.9-4.8,1.9
		c-0.4,0-0.9,0-1.4-0.1s-1-0.2-1.3-0.2l0.5-3.6c-0.1,0,0.2,0,0.8,0s1.1,0.1,1.2,0.1c1,0,1.8-0.4,2.4-1.3s1.1-1.8,1.6-2.9l1.1-2.6
		l-9.4-24.8h5.2L1246.1,543.2z"/>
	<path class="st9" d="M764.6,594.6h-3v10.8h-4.6V580h4.6v10.7h2.7l8.4-10.7h5.4l0.1,0.1l-9.9,12l10.7,13.1l-0.1,0.1h-5.7
		L764.6,594.6z"/>
	<path class="st9" d="M779.8,592.5c0-3.8,1-6.8,3-9.3s4.8-3.6,8.3-3.6c3.5,0,6.3,1.2,8.3,3.6s3.1,5.5,3.1,9.3v0.5c0,3.8-1,6.9-3,9.3
		s-4.8,3.6-8.3,3.6s-6.3-1.2-8.3-3.6s-3.1-5.5-3.1-9.3V592.5z M784.4,593c0,2.7,0.6,4.9,1.7,6.6s2.8,2.6,5.1,2.6
		c2.2,0,3.9-0.9,5-2.6s1.7-4,1.7-6.6v-0.5c0-2.7-0.6-4.9-1.7-6.6c-1.1-1.8-2.8-2.6-5.1-2.6c-2.2,0-3.9,0.9-5,2.6
		c-1.1,1.8-1.7,4-1.7,6.6V593z"/>
	<path class="st9" d="M822.6,599.3h0.1L831,580h5.8v25.4h-4.6v-17.6l-0.1,0l-7.8,17.6H821l-7.9-18l-0.1,0v18h-4.6V580h6L822.6,599.3
		z"/>
	<path class="st9" d="M864.5,605.4h-4.6v-21.7h-11.3v21.7h-4.6V580h20.6V605.4z"/>
	<path class="st9" d="M886.8,605.4c-0.2-0.8-0.3-1.4-0.4-2s-0.1-1.2-0.2-1.8c-0.9,1.2-2,2.2-3.4,3.1s-2.9,1.2-4.5,1.2
		c-2.6,0-4.7-0.7-6-2s-2.1-3.2-2.1-5.6c0-2.4,1-4.3,2.9-5.7s4.6-2.1,8-2.1h5V588c0-1.5-0.5-2.7-1.4-3.5s-2.2-1.3-3.8-1.3
		c-1.5,0-2.7,0.4-3.6,1.1s-1.4,1.7-1.4,2.7h-4.4l0-0.1c-0.1-1.8,0.8-3.5,2.6-5.1s4.2-2.3,7.1-2.3c2.9,0,5.2,0.7,6.9,2.2
		s2.6,3.6,2.6,6.3v12.2c0,0.9,0,1.8,0.1,2.6s0.3,1.7,0.5,2.5H886.8z M879.1,602c1.7,0,3.2-0.4,4.5-1.3s2.2-1.8,2.6-2.9v-4.1h-5.2
		c-1.9,0-3.3,0.5-4.5,1.4c-1.1,0.9-1.7,2-1.7,3.3c0,1.1,0.4,2,1.1,2.7S877.8,602,879.1,602z"/>
	<path class="st9" d="M918.1,605.4h-4.6v-10.8h-11.3v10.8h-4.6V580h4.6v11h11.3v-11h4.6V605.4z"/>
	<path class="st9" d="M940.8,580h4.6v25.4h-4.6v-18l-0.1,0l-11.2,18h-4.6V580h4.6v18l0.1,0L940.8,580z"/>
	<path class="st9" d="M968.1,580h4.6v25.4h-4.6v-18l-0.1,0l-11.2,18h-4.6V580h4.6v18l0.1,0L968.1,580z M969.3,569.6l0,0.1
		c0.1,1.8-0.5,3.3-1.8,4.4s-3,1.7-5.1,1.7c-2.2,0-3.9-0.6-5.1-1.7s-1.9-2.6-1.8-4.4l0-0.1h3.5c0,1,0.3,1.9,0.8,2.5s1.4,1,2.5,1
		c1.1,0,2-0.3,2.5-1s0.8-1.5,0.8-2.5H969.3z"/>
	<path class="st9" d="M1013,593.7c0,3.7-0.9,6.6-2.6,8.8s-4.2,3.4-7.2,3.4c-1.6,0-2.9-0.3-4.1-0.8s-2.2-1.3-3-2.4v12.4h-4.6V580h3.5
		l0.7,3.3c0.8-1.2,1.9-2.1,3.1-2.8s2.7-1,4.3-1c3.1,0,5.6,1.2,7.3,3.7s2.6,5.8,2.6,9.9V593.7z M1008.4,593.2c0-2.9-0.6-5.2-1.7-7.1
		c-1.1-1.8-2.8-2.8-5-2.8c-1.3,0-2.5,0.3-3.4,0.9c-0.9,0.6-1.7,1.4-2.3,2.5v12.2c0.6,1,1.3,1.9,2.3,2.4c0.9,0.6,2.1,0.9,3.4,0.9
		c2.2,0,3.8-0.8,5-2.4s1.7-3.7,1.7-6.2V593.2z"/>
	<path class="st9" d="M1034.2,605.4c-0.2-0.8-0.3-1.4-0.4-2s-0.1-1.2-0.2-1.8c-0.9,1.2-2,2.2-3.4,3.1s-2.9,1.2-4.5,1.2
		c-2.6,0-4.7-0.7-6-2s-2.1-3.2-2.1-5.6c0-2.4,1-4.3,2.9-5.7s4.6-2.1,8-2.1h5V588c0-1.5-0.5-2.7-1.4-3.5s-2.2-1.3-3.8-1.3
		c-1.5,0-2.7,0.4-3.6,1.1s-1.4,1.7-1.4,2.7h-4.4l0-0.1c-0.1-1.8,0.8-3.5,2.6-5.1s4.2-2.3,7.1-2.3c2.9,0,5.2,0.7,6.9,2.2
		s2.6,3.6,2.6,6.3v12.2c0,0.9,0,1.8,0.1,2.6s0.3,1.7,0.5,2.5H1034.2z M1026.6,602c1.7,0,3.2-0.4,4.5-1.3s2.2-1.8,2.6-2.9v-4.1h-5.2
		c-1.9,0-3.3,0.5-4.5,1.4c-1.1,0.9-1.7,2-1.7,3.3c0,1.1,0.4,2,1.1,2.7S1025.2,602,1026.6,602z"/>
	<path class="st9" d="M1061,580h4.6v25.4h-4.6v-18l-0.1,0l-11.2,18h-4.6V580h4.6v18l0.1,0L1061,580z M1062.2,569.6l0,0.1
		c0.1,1.8-0.5,3.3-1.8,4.4s-3,1.7-5.1,1.7c-2.2,0-3.9-0.6-5.1-1.7s-1.9-2.6-1.8-4.4l0-0.1h3.5c0,1,0.3,1.9,0.8,2.5s1.4,1,2.5,1
		c1.1,0,2-0.3,2.5-1s0.8-1.5,0.8-2.5H1062.2z"/>
	<path class="st9" d="M1071.2,592.5c0-3.8,1-6.8,3-9.3s4.8-3.6,8.3-3.6c3.5,0,6.3,1.2,8.3,3.6s3.1,5.5,3.1,9.3v0.5
		c0,3.8-1,6.9-3,9.3s-4.8,3.6-8.3,3.6s-6.3-1.2-8.3-3.6s-3.1-5.5-3.1-9.3V592.5z M1075.9,593c0,2.7,0.6,4.9,1.7,6.6s2.8,2.6,5.1,2.6
		c2.2,0,3.9-0.9,5-2.6s1.7-4,1.7-6.6v-0.5c0-2.7-0.6-4.9-1.7-6.6c-1.1-1.8-2.8-2.6-5.1-2.6c-2.2,0-3.9,0.9-5,2.6
		c-1.1,1.8-1.7,4-1.7,6.6V593z"/>
	<path class="st9" d="M1120.1,605.4h-4.6v-10.8h-11.3v10.8h-4.6V580h4.6v11h11.3v-11h4.6V605.4z"/>
	<path class="st9" d="M1142.5,605.4c-0.2-0.8-0.3-1.4-0.4-2s-0.1-1.2-0.2-1.8c-0.9,1.2-2,2.2-3.4,3.1s-2.9,1.2-4.5,1.2
		c-2.6,0-4.7-0.7-6-2s-2.1-3.2-2.1-5.6c0-2.4,1-4.3,2.9-5.7s4.6-2.1,8-2.1h5V588c0-1.5-0.5-2.7-1.4-3.5s-2.2-1.3-3.8-1.3
		c-1.5,0-2.7,0.4-3.6,1.1s-1.4,1.7-1.4,2.7h-4.4l0-0.1c-0.1-1.8,0.8-3.5,2.6-5.1s4.2-2.3,7.1-2.3c2.9,0,5.2,0.7,6.9,2.2
		s2.6,3.6,2.6,6.3v12.2c0,0.9,0,1.8,0.1,2.6s0.3,1.7,0.5,2.5H1142.5z M1134.8,602c1.7,0,3.2-0.4,4.5-1.3s2.2-1.8,2.6-2.9v-4.1h-5.2
		c-1.9,0-3.3,0.5-4.5,1.4c-1.1,0.9-1.7,2-1.7,3.3c0,1.1,0.4,2,1.1,2.7S1133.4,602,1134.8,602z"/>
	<path class="st9" d="M1157.3,604.3l-3.5,7.2h-2.7l1.6-7.4v-3.8h4.6V604.3z"/>
	<path class="st9" d="M1194.2,583.6h-8.4v21.7h-4.6v-21.7h-8.3V580h21.2V583.6z"/>
	<path class="st9" d="M1209.3,605.9c-3.5,0-6.3-1.2-8.4-3.5s-3.1-5.4-3.1-9.2v-1c0-3.6,1.1-6.6,3.2-9s4.7-3.6,7.6-3.6
		c3.4,0,6,1,7.8,3.1s2.6,4.8,2.6,8.3v2.9h-16.5l-0.1,0.1c0,2.4,0.7,4.4,1.9,6c1.2,1.6,2.9,2.3,5,2.3c1.6,0,2.9-0.2,4.1-0.7
		s2.2-1.1,3.1-1.8l1.8,3c-0.9,0.9-2.1,1.6-3.6,2.2S1211.4,605.9,1209.3,605.9z M1208.6,583.2c-1.5,0-2.9,0.7-4,2s-1.8,2.9-2,4.9
		l0,0.1h11.7v-0.6c0-1.8-0.5-3.3-1.5-4.5S1210.5,583.2,1208.6,583.2z"/>
	<path class="st9" d="M1238.6,599.3h0.1l8.3-19.3h5.8v25.4h-4.6v-17.6l-0.1,0l-7.8,17.6h-3.2l-7.9-18l-0.1,0v18h-4.6V580h6
		L1238.6,599.3z"/>
	<path class="st9" d="M809,634.2c3.3,0,5.8,1.1,7.8,3.2s2.9,5.1,2.9,8.8v0.3c0,3.7-1.1,6.6-3.2,8.8s-5.1,3.3-8.7,3.3
		c-3.7,0-6.6-1.2-8.7-3.6s-3.2-5.6-3.2-9.7v-1.1c0-5.7,1-10.2,2.9-13.4s4.8-5.3,8.6-6.1c2-0.4,3.3-0.9,3.9-1.3s0.9-1,0.9-1.8h5.5
		c0,2.5-0.7,4.3-2,5.5s-3.7,2.2-7,2.9c-2,0.4-3.6,1.2-4.7,2.4s-1.9,2.8-2.3,4.9C803.5,635.3,806,634.2,809,634.2z M807.7,639.7
		c-1.6,0-2.9,0.5-3.8,1.6s-1.4,2.8-1.4,5.3c0,2.2,0.4,3.8,1.3,4.9s2.2,1.7,3.9,1.7c1.6,0,2.9-0.6,3.8-1.7s1.3-2.7,1.4-4.9v-0.6
		c0-2.1-0.5-3.7-1.4-4.8S809.3,639.7,807.7,639.7z"/>
	<path class="st9" d="M822.7,645.3c0-2.5,0.5-4.8,1.5-6.7s2.4-3.5,4.2-4.6s3.9-1.6,6.3-1.6c3.4,0,6.2,1,8.4,3.1s3.4,4.9,3.6,8.5
		l0,1.7c0,3.9-1.1,7-3.3,9.4s-5.1,3.5-8.7,3.5s-6.6-1.2-8.8-3.5s-3.3-5.5-3.3-9.6V645.3z M829.4,645.7c0,2.4,0.5,4.3,1.4,5.5
		s2.2,1.9,3.9,1.9c1.6,0,2.9-0.6,3.8-1.9s1.4-3.3,1.4-6c0-2.4-0.5-4.2-1.4-5.5s-2.2-1.9-3.9-1.9c-1.7,0-2.9,0.6-3.8,1.9
		S829.4,643,829.4,645.7z"/>
	<path class="st9" d="M872.5,632.8v25.4h-6.8v-19.9h-6l-0.4,7.8c-0.3,4.2-1.1,7.2-2.5,9.1c-1.4,1.9-3.4,2.9-6.1,2.9h-2.3l-0.1-5.5
		l0.8-0.1c1.2-0.1,2.1-0.8,2.7-2.2s0.9-3.6,1.1-6.9l0.5-10.8H872.5z"/>
	<path class="st9" d="M884.9,640.2h4.9c2.2,0,4.1,0.4,5.8,1.1s2.9,1.8,3.8,3.2s1.3,3,1.3,4.8c0,2.7-1,4.8-3,6.5s-4.7,2.4-8.1,2.4
		h-11.5v-25.4h6.8V640.2z M884.9,645.7v7.1h4.8c1.3,0,2.4-0.3,3.1-0.9c0.7-0.6,1.1-1.5,1.1-2.5c0-1.1-0.4-2-1.1-2.6
		c-0.7-0.6-1.7-1-3.1-1H884.9z"/>
	<path class="st9" d="M911.3,632.8v19.9h7v-19.9h6.8v19.9h7v-19.9h6.8v25.4h-34.3v-25.4H911.3z"/>
	<path class="st9" d="M955.9,658.6c-3.7,0-6.7-1.1-9.1-3.4s-3.5-5.3-3.5-9.1v-0.7c0-2.5,0.5-4.8,1.5-6.8s2.4-3.6,4.2-4.6
		s3.9-1.6,6.2-1.6c3.5,0,6.2,1.1,8.2,3.3s3,5.3,3,9.3v2.8h-16.1c0.2,1.7,0.9,3,2,4s2.5,1.5,4.2,1.5c2.6,0,4.6-0.9,6.1-2.8l3.3,3.7
		c-1,1.4-2.4,2.6-4.1,3.4S958,658.6,955.9,658.6z M955.1,637.8c-1.3,0-2.4,0.5-3.3,1.4s-1.4,2.2-1.6,3.9h9.4v-0.5
		c0-1.5-0.4-2.7-1.2-3.5S956.5,637.8,955.1,637.8z"/>
	<path class="st9" d="M1004.1,658.2h-6.8v-19.9h-8.5v19.9h-6.8v-25.4h22.1V658.2z"/>
	<path class="st9" d="M1032.2,645.7c0,3.9-0.9,7-2.7,9.4s-4.2,3.5-7.2,3.5c-2.6,0-4.6-0.9-6.2-2.7v12h-6.8v-35.1h6.3l0.2,2.5
		c1.6-2,3.8-3,6.4-3c3.1,0,5.6,1.2,7.3,3.5s2.6,5.5,2.6,9.6V645.7z M1025.4,645.2c0-2.4-0.4-4.2-1.3-5.5s-2.1-1.9-3.6-1.9
		c-2.1,0-3.6,0.8-4.4,2.4v10.4c0.8,1.7,2.3,2.5,4.4,2.5C1023.8,653.2,1025.4,650.5,1025.4,645.2z"/>
	<path class="st9" d="M1048,658.6c-3.7,0-6.7-1.1-9.1-3.4s-3.5-5.3-3.5-9.1v-0.7c0-2.5,0.5-4.8,1.5-6.8s2.4-3.6,4.2-4.6
		s3.9-1.6,6.2-1.6c3.5,0,6.2,1.1,8.2,3.3s3,5.3,3,9.3v2.8h-16.1c0.2,1.7,0.9,3,2,4s2.5,1.5,4.2,1.5c2.6,0,4.6-0.9,6.1-2.8l3.3,3.7
		c-1,1.4-2.4,2.6-4.1,3.4S1050.1,658.6,1048,658.6z M1047.2,637.8c-1.3,0-2.4,0.5-3.3,1.4s-1.4,2.2-1.6,3.9h9.4v-0.5
		c0-1.5-0.4-2.7-1.2-3.5S1048.7,637.8,1047.2,637.8z"/>
	<path class="st9" d="M1077.7,650.2l6.6-17.4h8.5v25.4h-6.8v-15.6l-6.1,15.6h-4.5l-6-15.3v15.3h-6.8v-25.4h8.4L1077.7,650.2z"/>
	<path class="st9" d="M1114,632.8h6.8v25.4h-6.8v-15.7l-8.5,15.7h-6.8v-25.4h6.8v15.6L1114,632.8z"/>
	<path class="st9" d="M1141.3,632.8h6.8v25.4h-6.8v-15.7l-8.5,15.7h-6.8v-25.4h6.8v15.6L1141.3,632.8z M1145.2,622.6
		c0,2.1-0.7,3.7-2.2,5c-1.5,1.3-3.4,1.9-5.9,1.9s-4.4-0.6-5.9-1.9c-1.5-1.3-2.2-2.9-2.2-5h4.8c0,1,0.3,1.7,0.9,2.3s1.4,0.8,2.4,0.8
		c1,0,1.8-0.3,2.4-0.8s0.9-1.3,0.9-2.3H1145.2z"/>
	<path class="st9" d="M1186.4,658.2h-4.6v-10.8h-11.3v10.8h-4.6v-25.4h4.6v11h11.3v-11h4.6V658.2z"/>
	<path class="st9" d="M1208.8,658.2c-0.2-0.8-0.3-1.4-0.4-2s-0.1-1.2-0.2-1.8c-0.9,1.2-2,2.2-3.4,3.1s-2.9,1.2-4.5,1.2
		c-2.6,0-4.7-0.7-6-2s-2.1-3.2-2.1-5.6c0-2.4,1-4.3,2.9-5.7s4.6-2.1,8-2.1h5v-2.5c0-1.5-0.5-2.7-1.4-3.5s-2.2-1.3-3.8-1.3
		c-1.5,0-2.7,0.4-3.6,1.1s-1.4,1.7-1.4,2.7h-4.4l0-0.1c-0.1-1.8,0.8-3.5,2.6-5.1s4.2-2.3,7.1-2.3c2.9,0,5.2,0.7,6.9,2.2
		s2.6,3.6,2.6,6.3v12.2c0,0.9,0,1.8,0.1,2.6s0.3,1.7,0.5,2.5H1208.8z M1201.1,654.8c1.7,0,3.2-0.4,4.5-1.3c1.3-0.9,2.2-1.8,2.6-2.9
		v-4.1h-5.2c-1.9,0-3.3,0.5-4.5,1.4s-1.7,2-1.7,3.3c0,1.1,0.4,2,1.1,2.7S1199.7,654.8,1201.1,654.8z"/>
	<path class="st9" d="M764.7,711v-25.4h10c3.3,0,5.9,0.6,7.8,1.7s2.8,2.9,2.8,5.2c0,1.2-0.4,2.2-1.1,3.2s-1.7,1.6-3,2.1
		c1.6,0.4,2.8,1.1,3.7,2.2s1.3,2.3,1.3,3.7c0,2.4-0.9,4.2-2.6,5.4s-4.1,1.8-7.2,1.8H764.7z M769.4,696.3h5.4c2,0,3.4-0.3,4.4-0.9
		s1.5-1.4,1.5-2.6c0-1.2-0.5-2.1-1.5-2.7s-2.5-0.9-4.4-0.9h-5.4V696.3z M769.4,699.9v7.5h7c1.7,0,3-0.3,3.9-1s1.3-1.6,1.3-2.8
		c0-1.2-0.4-2.1-1.3-2.8s-2.2-1-3.9-1H769.4z"/>
	<path class="st9" d="M807.6,711c-0.2-0.8-0.3-1.4-0.4-2s-0.1-1.2-0.2-1.8c-0.9,1.2-2,2.2-3.4,3.1s-2.9,1.2-4.5,1.2
		c-2.6,0-4.7-0.7-6-2s-2.1-3.2-2.1-5.6c0-2.4,1-4.3,2.9-5.7s4.6-2.1,8-2.1h5v-2.5c0-1.5-0.5-2.7-1.4-3.5s-2.2-1.3-3.8-1.3
		c-1.5,0-2.7,0.4-3.6,1.1s-1.4,1.7-1.4,2.7h-4.4l0-0.1c-0.1-1.8,0.8-3.5,2.6-5.1s4.2-2.3,7.1-2.3c2.9,0,5.2,0.7,6.9,2.2
		s2.6,3.6,2.6,6.3v12.2c0,0.9,0,1.8,0.1,2.6s0.3,1.7,0.5,2.5H807.6z M799.9,707.6c1.7,0,3.2-0.4,4.5-1.3c1.3-0.9,2.2-1.8,2.6-2.9
		v-4.1h-5.2c-1.9,0-3.3,0.5-4.5,1.4s-1.7,2-1.7,3.3c0,1.1,0.4,2,1.1,2.7S798.5,707.6,799.9,707.6z"/>
	<path class="st9" d="M823,685.6v21.7h8.9v-21.7h4.6v21.7h8.9v-21.7h4.6V711h-31.7v-25.4H823z"/>
	<path class="st9" d="M867.5,711.5c-3.5,0-6.3-1.2-8.4-3.5s-3.1-5.4-3.1-9.2v-1c0-3.6,1.1-6.6,3.2-9s4.7-3.6,7.6-3.6
		c3.4,0,6,1,7.8,3.1s2.6,4.8,2.6,8.3v2.9h-16.5l-0.1,0.1c0,2.4,0.7,4.4,1.9,6c1.2,1.6,2.9,2.3,5,2.3c1.6,0,2.9-0.2,4.1-0.7
		s2.2-1.1,3.1-1.8l1.8,3c-0.9,0.9-2.1,1.6-3.6,2.2S869.6,711.5,867.5,711.5z M866.8,688.8c-1.5,0-2.9,0.7-4,2
		c-1.1,1.3-1.8,2.9-2,4.9l0,0.1h11.7v-0.6c0-1.8-0.5-3.3-1.5-4.5C870.1,689.4,868.7,688.8,866.8,688.8z"/>
	<path class="st9" d="M896.8,704.9h0.1l8.3-19.3h5.8V711h-4.6v-17.6l-0.1,0l-7.8,17.6h-3.2l-7.9-18l-0.1,0v18h-4.6v-25.4h6
		L896.8,704.9z"/>
	<path class="st9" d="M950.6,685.6V711H946v-21.7h-8.6v7.2c0,5-0.7,8.7-2,11s-3.6,3.5-6.8,3.5h-1.3l0.1-3.9l1,0
		c1.6,0,2.8-0.8,3.4-2.4s1-4.3,1-8.2v-10.9H950.6z"/>
	<path class="st9" d="M972.6,685.6h4.6V711h-4.6v-18l-0.1,0l-11.2,18h-4.6v-25.4h4.6v18l0.1,0L972.6,685.6z"/>
	<path class="st9" d="M1003.7,711h-4.6v-9.1c-0.9,0.2-1.8,0.4-2.7,0.5s-1.9,0.2-3,0.2c-3.1,0-5.5-0.8-7.2-2.4
		c-1.7-1.6-2.6-4-2.6-7.1v-7.4h4.6v7.5c0,2,0.4,3.5,1.3,4.5s2.2,1.4,3.9,1.4c1,0,2-0.1,3-0.2s1.9-0.3,2.8-0.5v-12.6h4.6V711z"/>
	<path class="st9" d="M1030.9,711h-4.6v-10.8H1015V711h-4.6v-25.4h4.6v11h11.3v-11h4.6V711z"/>
	<path class="st9" d="M1036.6,698.1c0-3.8,1-6.8,3-9.3s4.8-3.6,8.3-3.6c3.5,0,6.3,1.2,8.3,3.6s3.1,5.5,3.1,9.3v0.5
		c0,3.8-1,6.9-3,9.3s-4.8,3.6-8.3,3.6s-6.3-1.2-8.3-3.6s-3.1-5.5-3.1-9.3V698.1z M1041.2,698.6c0,2.7,0.6,4.9,1.7,6.6
		c1.1,1.7,2.8,2.6,5.1,2.6c2.2,0,3.9-0.9,5-2.6c1.1-1.7,1.7-4,1.7-6.6v-0.5c0-2.7-0.6-4.9-1.7-6.6s-2.8-2.6-5.1-2.6
		c-2.2,0-3.9,0.9-5,2.6s-1.7,4-1.7,6.6V698.6z"/>
	<path class="st9" d="M1079.4,704.9h0.1l8.3-19.3h5.8V711h-4.6v-17.6l-0.1,0l-7.8,17.6h-3.2l-7.9-18l-0.1,0v18h-4.6v-25.4h6
		L1079.4,704.9z"/>
	<path class="st9" d="M1123,707.8c1.5,0,2.9-0.5,4-1.4s1.7-2.1,1.7-3.5h4.1l0,0.1c0.1,2.2-0.9,4.1-2.9,5.8s-4.4,2.6-7.1,2.6
		c-3.7,0-6.5-1.2-8.5-3.6s-2.9-5.4-2.9-9.1v-1c0-3.6,1-6.6,2.9-9s4.8-3.6,8.4-3.6c3,0,5.4,0.9,7.3,2.6s2.8,3.9,2.7,6.4l0,0.1h-4.2
		c0-1.5-0.5-2.9-1.6-3.9s-2.5-1.6-4.1-1.6c-2.4,0-4.2,0.9-5.2,2.6s-1.6,3.9-1.6,6.4v1c0,2.6,0.5,4.7,1.5,6.5
		S1120.6,707.8,1123,707.8z"/>
	<path class="st9" d="M1158,711h-4.6v-9.1c-0.9,0.2-1.8,0.4-2.7,0.5s-1.9,0.2-3,0.2c-3.1,0-5.5-0.8-7.2-2.4c-1.7-1.6-2.6-4-2.6-7.1
		v-7.4h4.6v7.5c0,2,0.4,3.5,1.3,4.5s2.2,1.4,3.9,1.4c1,0,2-0.1,3-0.2s1.9-0.3,2.8-0.5v-12.6h4.6V711z"/>
	<path class="st9" d="M1175.2,711.5c-3.5,0-6.3-1.2-8.4-3.5s-3.1-5.4-3.1-9.2v-1c0-3.6,1.1-6.6,3.2-9s4.7-3.6,7.6-3.6
		c3.4,0,6,1,7.8,3.1s2.6,4.8,2.6,8.3v2.9h-16.5l-0.1,0.1c0,2.4,0.7,4.4,1.9,6c1.2,1.6,2.9,2.3,5,2.3c1.6,0,2.9-0.2,4.1-0.7
		s2.2-1.1,3.1-1.8l1.8,3c-0.9,0.9-2.1,1.6-3.6,2.2S1177.3,711.5,1175.2,711.5z M1174.5,688.8c-1.5,0-2.9,0.7-4,2
		c-1.1,1.3-1.8,2.9-2,4.9l0,0.1h11.7v-0.6c0-1.8-0.5-3.3-1.5-4.5C1177.9,689.4,1176.4,688.8,1174.5,688.8z"/>
	<path class="st9" d="M1209.4,689.2h-8.4V711h-4.6v-21.7h-8.3v-3.6h21.2V689.2z"/>
	<path class="st9" d="M1224.5,711.5c-3.5,0-6.3-1.2-8.4-3.5s-3.1-5.4-3.1-9.2v-1c0-3.6,1.1-6.6,3.2-9s4.7-3.6,7.6-3.6
		c3.4,0,6,1,7.8,3.1s2.6,4.8,2.6,8.3v2.9h-16.5l-0.1,0.1c0,2.4,0.7,4.4,1.9,6c1.2,1.6,2.9,2.3,5,2.3c1.6,0,2.9-0.2,4.1-0.7
		s2.2-1.1,3.1-1.8l1.8,3c-0.9,0.9-2.1,1.6-3.6,2.2S1226.6,711.5,1224.5,711.5z M1223.8,688.8c-1.5,0-2.9,0.7-4,2
		c-1.1,1.3-1.8,2.9-2,4.9l0,0.1h11.7v-0.6c0-1.8-0.5-3.3-1.5-4.5C1227.1,689.4,1225.7,688.8,1223.8,688.8z"/>
	<path class="st9" d="M1244.6,699.8h-4.6v-22.9h4.6V699.8z M1244.6,711h-4.6v-4.8h4.6V711z"/>
</g>
</svg>
