<svg
    xmlns="http://www.w3.org/2000/svg"
    width="32.4" 
    height="71.5"
    viewBox="0 0 3457 7761"
    id="vector">
    <path
        id="path"
        d="M 2131.18 0 C 1911.31 0 1704 54.75 1522.04 151.19 C 2017.36 207.58 2442.35 499.02 2682.45 910.9 C 2726.27 972 2760.2 1040.65 2781.88 1114.49 C 2852.71 1291.51 2891.76 1484.57 2891.81 1686.57 C 2891.81 1908.93 2846.27 2121.23 2756.49 2317.57 C 2571.01 2723.47 2303.85 3140.16 2052.07 3491.83 C 2060.78 3502.06 2068.91 3511.56 2076.26 3520.11 C 2089.91 3536.21 2110.08 3545.41 2131.18 3545.41 C 2152.45 3545.41 2172.5 3536.21 2186.28 3520.11 C 2370.19 3306.08 2995.95 2552.24 3322.28 1838.1 C 3398.12 1672.28 3436.57 1492.99 3436.57 1305.19 C 3436.39 585.54 2850.87 0.02 2131.18 0 Z M 850.01 1055.83 C 843.03 1091.74 837.51 1128.16 833.54 1165.03 L 833.6 1164.97 C 964.86 1033.7 1146.21 952.5 1346.52 952.5 C 1412.64 952.5 1476.7 961.35 1537.57 977.93 C 1549.17 956.99 1561.83 936.72 1575.5 917.2 C 1502.79 895.48 1425.81 883.75 1346.13 883.75 C 1159.03 883.75 986.67 948.11 850.01 1055.83 Z M 848.75 1550.37 C 867.61 1649.87 898.13 1746.06 940.12 1838.1 C 982.64 1931.13 1030.25 2024.84 1081.31 2117.95 C 1158.73 2164.71 1249.48 2191.62 1346.52 2191.62 C 1488.38 2191.62 1616.82 2134.11 1709.78 2041.15 C 1750.2 2000.73 1783.91 1953.61 1809.11 1901.59 C 1597.33 1786.77 1453.17 1562.5 1453.17 1305.19 C 1453.17 1261.71 1457.29 1219.17 1465.16 1177.94 C 1427.08 1168.94 1387.36 1164.16 1346.52 1164.16 C 1204.66 1164.16 1076.21 1221.67 983.26 1314.63 C 919.14 1378.74 871.9 1459.73 848.75 1550.37 Z M 1244.39 2396.14 C 1263.6 2427.05 1283.03 2457.73 1302.6 2488.15 C 1317.01 2488.93 1331.53 2489.35 1346.13 2489.35 C 1684.48 2489.35 1974.64 2278.89 2092.6 1982.06 C 2064.47 1980.47 2036.8 1977.15 2009.68 1972.23 C 1973.23 2054.22 1922.03 2128.22 1859.44 2190.81 C 1728.18 2322.07 1546.82 2403.28 1346.52 2403.28 C 1311.86 2403.28 1277.76 2400.84 1244.39 2396.14 Z"
        fill="#e73075"/>
    <path
        id="path_1"
        d="M 2131.18 0 C 1911.31 0 1703.99 54.75 1522.04 151.19 C 1633.22 163.85 1740.88 188.26 1843.69 223.31 C 1933.07 144.43 2033.19 70.05 2144.3 0.17 C 2139.93 0.12 2135.57 0 2131.18 0 Z M 850.01 1055.83 C 843.03 1091.73 837.52 1128.16 833.54 1165.03 L 833.6 1164.97 C 964.86 1033.7 1146.21 952.5 1346.52 952.5 C 1352.55 952.5 1358.57 952.58 1364.57 952.73 C 1371.26 929.84 1378.44 907.16 1386.2 884.75 C 1372.92 884.09 1359.56 883.74 1346.12 883.74 C 1159.03 883.74 986.67 948.09 850.01 1055.83 Z M 848.75 1550.38 C 867.61 1649.87 898.13 1746.05 940.12 1838.09 C 982.65 1931.13 1030.26 2024.84 1081.32 2117.95 C 1158.74 2164.7 1249.49 2191.62 1346.52 2191.62 C 1379.56 2191.62 1411.88 2188.5 1443.19 2182.54 C 1317.33 1803.73 1276.74 1465.56 1319.12 1164.88 C 1188.16 1171.76 1070.19 1227.69 983.26 1314.63 C 919.14 1378.74 871.9 1459.74 848.75 1550.38 Z M 1244.38 2396.14 C 1263.61 2427.06 1283.04 2457.75 1302.61 2488.17 C 1317.02 2488.95 1331.52 2489.36 1346.12 2489.36 C 1416.18 2489.36 1484.16 2480.32 1548.99 2463.37 C 1537.72 2436.48 1526.86 2409.79 1516.37 2383.27 C 1461.89 2396.34 1405.01 2403.28 1346.52 2403.28 C 1311.85 2403.28 1277.74 2400.84 1244.38 2396.14 Z M 2052.06 3491.82 C 2060.77 3502.05 2068.91 3511.56 2076.26 3520.11 C 2089.91 3536.21 2110.08 3545.41 2131.18 3545.41 C 2135.62 3545.41 2140.01 3545.01 2144.3 3544.23 C 2123.19 3512.39 2102.61 3480.81 2082.3 3449.37 C 2072.21 3463.62 2062.12 3477.78 2052.06 3491.82 Z"
        fill="#be1e51"/>
    <path
        id="path_2"
        d="M 1322.81 352.77 C 603.17 352.77 17.64 938.31 17.64 1657.96 C 17.64 1845.76 56.11 2025.05 131.75 2190.87 C 458.08 2904.83 1083.84 3658.85 1267.89 3872.88 C 1281.54 3888.98 1301.71 3898.18 1322.81 3898.18 C 1344.08 3898.18 1364.13 3888.98 1377.91 3872.88 C 1561.82 3658.85 2187.59 2905.01 2513.91 2190.87 C 2589.75 2025.05 2628.2 1845.76 2628.2 1657.96 C 2628.02 938.31 2042.5 352.79 1322.81 352.77 Z M 1322.81 2335.95 C 949 2335.95 644.8 2031.76 644.8 1657.96 C 644.8 1284.13 949 979.95 1322.81 979.95 C 1696.66 979.95 2000.86 1284.13 2000.86 1657.96 C 2000.86 2031.76 1696.66 2335.95 1322.81 2335.95 Z"
        fill="#6ee24f"/>
    <path
        id="path_3"
        d="M 1322.81 352.77 C 603.17 352.77 17.64 938.31 17.64 1657.96 C 17.64 1845.76 56.1 2025.04 131.75 2190.86 C 458.08 2904.83 1083.83 3658.85 1267.89 3872.88 C 1281.54 3888.98 1301.71 3898.18 1322.81 3898.18 C 1327.25 3898.18 1331.64 3897.78 1335.93 3897 C 194.81 2175.94 233.11 1046.48 1335.93 352.94 C 1331.56 352.89 1327.2 352.77 1322.81 352.77 Z"
        fill="#669900"/>
</svg>
